{
    "alfabeto":{
        "A": {
            "erros":0,
            "acertos":0
        },
        "B": {
            "erros":0,
            "acertos":0
        },
        "C": {
            "erros":0,
            "acertos":0
        },
        "D": {
            "erros":0,
            "acertos":0
        },
        "E": {
            "erros":0,
            "acertos":0
        },
        "F": {
            "erros":0,
            "acertos":0
        },
        "G": {
            "erros":0,
            "acertos":0
        },
        "H": {
            "erros":0,
            "acertos":0
        },
        "I": {
            "erros":0,
            "acertos":0
        },
        "J": {
            "erros":0,
            "acertos":0
        },
        "K": {
            "erros":0,
            "acertos":0
        },
        "L": {
            "erros":0,
            "acertos":0
        },
        "M": {
            "erros":0,
            "acertos":0
        },
        "N": {
            "erros":0,
            "acertos":0
        },
        "O": {
            "erros":0,
            "acertos":0
        },
        "P": {
            "erros":0,
            "acertos":0
        },
        "Q": {
            "erros":0,
            "acertos":0
        },
        "R": {
            "erros":0,
            "acertos":0
        },
        "S": {
            "erros":0,
            "acertos":0
        },
        "T": {
            "erros":0,
            "acertos":0
        },
        "U": {
            "erros":0,
            "acertos":0
        },
        "V": {
            "erros":0,
            "acertos":0
        },
        "X": {
            "erros":0,
            "acertos":0
        },
        "W": {
            "erros":0,
            "acertos":0
        },
        "Y": {
            "erros":0,
            "acertos":0
        },
        "Z": {
            "erros":0,
            "acertos":0
        }
    },
    
    "palavras": {
        "zebra": [
                  "Z",
                  "E",
                  "B",
                  "R",
                  "A"
                  ],
        "cachorro":[
                    "C",
                    "A",
                    "C",
                    "H",
                    "O",
                    "R",
                    "R",
                    "O"
                    ],
        "elefante":[
                    "E",
                    "L",
                    "E",
                    "F",
                    "A",
                    "N",
                    "T",
                    "E"
                    ]
        
        
        
    },
    "letrasConhecidas": [
                         "A",
                         "B",
                         "C"
                         ]
}